{
   "Diario": {
      "texto": "Crónica",
      "bounding_box": {}
   },
   "Fecha": {
      "texto": "1983-03-05",
      "bounding_box": {}
   },
   "Notas": [
      {
         "Volanta": [],
         "Título": [
            {
               "texto": "INFORMARON SOBRE EL\nTRASLADO DE DETENIDOS",
               "bounding_box": {
                  "x": 38.015463917525764,
                  "y": 18.232558139534884,
                  "width": 235.18900343642613,
                  "height": 43.04909560723513
               }
            }
         ],
         "Copete": [],
         "Destacado": [],
         "Cuerpo": [
            {
               "texto": "La entidad Familiares de Desaparecidos y Detenidos\npor Razones Políticas, con sede en la calle Corrientes 1785,\ninformó que \"luego de los traslados de detenidos por razones políticas, durante los mese de enero y Febrero a la\nfecha, la situación de la poblacion carcelaria es la siguiente: Unidad 3 Instituto Correccional de Mujeres de Ezeiza, a esta unidad son trasladados las detenidas provenientes\nde la Unidad 2 - Villa Devoto. 65 detenidas son distribuidas en la siguiente forma: pabellon 1, diez detenidas; pabellon 2, once detenidas pabellon 3, veintitres detenidas,\ny pabellon 4, veintiuna detenidas.\n\n",
               "bounding_box": {
                  "x": 33.45360824742268,
                  "y": 64.3204134366925,
                  "width": 243.29896907216494,
                  "height": 296.27906976744185
               }
            }
         ],
         "Fotografía": [],
         "Epígrafe": [],
         "Firma": []
      }
   ],
   "Página": []
}