{
   "Diario": {
      "texto": "LA NACION",
      "bounding_box": {
         "x": 1990.1780558229066,
         "y": 41.727493917274934,
         "width": 325.4379210779596,
         "height": 75.10948905109487
      }
   },
   "Fecha": {
      "texto": "28 de abril de 1985",
      "bounding_box": {
         "x": 3742.536092396535,
         "y": 66.7639902676399,
         "width": 496.5014436958614,
         "height": 62.591240875912405
      }
   },
   "Notas": [
      {
         "Volanta": [
            {
               "texto": "La audiencia pública del juicio a los ex comandantes",
               "bounding_box": {
                  "x": 120.99615014436958,
                  "y": 183.60097323600974,
                  "width": 1381.0250240615974,
                  "height": 100.14598540145987
               }
            }
         ],
         "Título": [
            {
               "texto": "Declaraciones con significados distintos",
               "bounding_box": {
                  "x": 120.99615014436958,
                  "y": 312.95620437956205,
                  "width": 3387.8922040423486,
                  "height": 212.8102189781022
               }
            },
            {
               "texto": "Lo que se dice y el análisis posterior",
               "bounding_box": {
                  "x": 772.1044776119403,
                  "y": 1430.6030150753768,
                  "width": 625.4477611940299,
                  "height": 64.6356783919598
               }
            },
            {
               "texto": "Mañana, otra larga jornada",
               "bounding_box": {
                  "x": 2152.402985074627,
                  "y": 642.0477386934675,
                  "width": 487.4179104477612,
                  "height": 60.32663316582914
               }
            },
            {
               "texto": "Un editorial de The New York Times.",
               "bounding_box": {
                  "x": 2829.611940298507,
                  "y": 831.6457286432161,
                  "width": 659.9552238805968,
                  "height": 47.39949748743719
               }
            }
         ],
         "Copete": [],
         "Destacado": [],
         "Cuerpo": [
            {
               "texto": "Mañana comienza la segunda semana de la audiencia pública y oral\nque la Cámara Federal, con aplicación\ndel recientemente reformado Código de\nJusticia Militar, sigue en el Palacio de\nJusticia de esta ciudad contra los nueve\nintegrantes de las tres primeras juntas\ndel llamado proceso de reorganización\nnacional. Será la segunda de muchas\nsemanas por la que se extenderá esta\nparte del juicio que, según las iniciales\nprevisiones, se completaría en unos\ntres meses, pero que las estimaciones\nmás frescas lo llevan a unos seis meses.\n\n\nEn cierto modo, el cronograma fijado para la primera semana concluida\nel viernes no pudo completarse por\nmuy poco margen, ya que la indisposición sufrida\npor el ex director del\nBuenos Aires Herald, Robert Cox, dejó\ninconclusa la audiencia última, y seis\nde los doce testigos citados para ese día\nno llegaron a prestar declaración al\ndisponerse el levantamiento de la sesión.\n\nLo de Robert Cox puede considerarse\ncomo la tercera incidencia significativa que alteró el ritmo ideado por la\nCámara Federal: primero fue el holandés Theodor van Boven, ex miembro",
               "bounding_box": {
                  "x": 95.96246390760341,
                  "y": 546.6301703163017,
                  "width": 659.2204042348412,
                  "height": 1030.6690997566914
               }
            },
            {
               "texto": "del Comité de Derechos Humanos de\nlas Naciones Unidas, quien dilató por\nhoras un testimonio impreciso, con excesivas generalidades y sujeto a una dificultosa traducción. Luego fue el insólito acto protagonizado por el diputado\nConte y el defensor Orgeira, que terminó con el desalojo de la sala y las\nsanciones y repercusiones que hemos\ncomentado en ediciones anteriores.\n\nPero lo de Cox no tiene más explicación que haber cedido a una gran carga\nemocional en el momento de declarar\nsobre lo que motivó su ida de la Argentina: las amenazas contra la vida de él\ny de los integrantes de su familia. La\ncrisis sufrida por el ex director del diario inglés de Buenos Aires llevó a una\nlógica pregunta que se hizo en el tribunal como buscando la causa de lo que\nsucedía: “¿Ha sido motivo de nuevas\namenazas?” ¡No, señor!, respondió, y\nentonces postergó su regreso a Inglaterra para después de mañana, día en que\ntendrá que completar su testimonio.",
               "bounding_box": {
                  "x": 776.0442733397498,
                  "y": 542.4574209245745,
                  "width": 663.392685274302,
                  "height": 892.507060851704
               }
            },
            {
               "texto": "de esta primera semana, pero no imputable a la audiencia en sí sino a lo que\nen ella se dijo, o bien, “a lo que en ella\nno se dijo”, es el clima generado en el\nambiente gremial después del testimonio del abogado, sindicalista y uno de\nlos secretarios generales de la CGT,\nRamón Baldassini.\n\nSi a este panorama le agregamos las\nprecisas definiciones de los miembros\nde la cuarta junta militar -Nicolaides,\nHughes y Franco- sobre el enfoque de\nlo que fue la guerra contra la subversión y sobre el papel que desarrollaron\nellos para encaminar la política argentina hacia la institucionalización actual, entonces de estas audiencias deben diferenciarse claramente dos\ncampos para atender: primero, la marcha del proceso en sí, vista objetivamente y segundo, las evaluaciones y\nconsecuencias que tiene lo que en las\naudiencias se manifiesta.\n\nEl almirante Rubén Franco, por\nejemplo, dijo que la elaboración del documento final sobre la lucha antisubversiva formó parte de “una decisión\npolítica, dirigida a la institucionalización democrática”, y que por este motivo “no se consultó a los anteriores co",
               "bounding_box": {
                  "x": 1460.2983638113562,
                  "y": 546.630170316301,
                  "width": 667.5649663137633,
                  "height": 1030.6690997566907
               }
            },
            {
               "texto": "Mañana, como dijimos, completará\nsu testimonio Robert Cox, y le seguirán\nlos de Adriana Calvo de Laborde, Angel\nLaborde, Héctor Caffini, Marina Inés\nLaborde de Fernández, Julio César\nCalvo, María Elena Camino de Letardo, Eduardo González Letardo, Raúl\nOsvaldo Contini, Fernando Adamov,\nCarlos Franceso y Ana Maria Caracoche de Gatica. Estos son los que tenían\ncitación para el lunes, pero es de suponer que al completarse la audiencia del\nviernes declararán también Eduardo\nRabossi, subsecretario de Derechos Humanos; Carlos Gatinoni, obispo metodista que integró la Conadep; Armando Fertita y Luis Rébora, miembros de los\npartidos Intransigente y Demócrata\nProgresista, respectivamente, que interaron la Conadep de Mar del Plata y\nCórdoba;la periodista María Laura\nAvignolo, y Estela Barnes de Carlotto,\nresidenta de las Abuelas de Plaza de\nMayo.\n\nEn lo que se refiere al tribunal, su\npresidente, el Dr. León Carlos Arsla",
               "bounding_box": {
                  "x": 2152.8970163618856,
                  "y": 697.1741615620679,
                  "width": 655.0481231953773,
                  "height": 884.2978579026494
               }
            },
            {
               "texto": "El diario The New York Times, de\nlos Estados Unidos, publicó un editorial\ntitulado “Juicios en la Argentina”, y\ndespués de señalar que “algo notable”\nestá pasando en nuestro país, señala:\n\n“El juicio -que podría durar hasta\nseis meses- determinará la culpabilidad o la inocencia de nueve generales,\nalmirantes y brigadieres que integraron. las juntas militares desde 1976\nhasta 1982. Pero esos militares no están solos en el banquillo de los acusados. El proceso legal reconoce que su\nreino de desapariciones y torturas fue,\nen realidad, recibido con beneplácito\npor gran parte de la población. La defensa ha citado a muchos líderes políticos civiles para tratar de demostrar\nque las juntas libraron una guerra necesaria contra la subversión, una gue",
               "bounding_box": {
                  "x": 2832.978825794036,
                  "y": 882.326810451283,
                  "width": 659.2204042348399,
                  "height": 711.6634571886196
               }
            },
            {
               "texto": "rra legalmente declarada por el gobierno -elegido previamente- de Isabel\nPerón.\n\n“La fiscalía sostendrá -se agrega-\nque el terrorismo nunca puede ser legítimo y que el asesinato, el secuestro y\nla tortura no tienen ningún propósito\npolítico de redención. El principio es similar a aquel invocado por Gran Bretaña contra las fuerzas «políticas» del\nEjército Republicano Irlandés, y por\nItalia contra las Brigadas Rojas asesinas. En una sociedad donde impera la\nley, cualquier crimen de esa naturaleza\ndebe ser una cuestión de responsabilidad personal. No puede haber inmunidad institucional, o ideológica.\n\n“Los acusados en Buenos Aires, sin\nembargo, no son miembros de algún\nsector radicalizado sino los pilares del\nrégimen militar de la Argentina. Y el\njuicio se produce en un momento en que\nla deuda externa y la inflación de la Argentina amenazan nuevamente el orden social, y en vísperas de una reñida\nelección para renovar autoridades parlamentarias.",
               "bounding_box": {
                  "x": 3517.23291626564,
                  "y": 571.6666666666664,
                  "width": 655.04812319538,
                  "height": 1030.6690997566914
               }
            },
            {
               "texto": "Mientras tanto, otro importante\nsaldo que debe adjudicarse a la marcha",
               "bounding_box": {
                  "x": 772.1044776119403,
                  "y": 1486.6206030150754,
                  "width": 655.6417910447759,
                  "height": 94.79899497487438
               }
            },
            {
               "texto": "mandantes en jefe -los que ahora son\njuzgados- para su redacción...”",
               "bounding_box": {
                  "x": 2165.34328358209,
                  "y": 555.8668341708543,
                  "width": 638.3880597014926,
                  "height": 81.87185929648238
               }
            },
            {
               "texto": "nian, dejará la conducción de la audiencia en manos del Dr. Guillermo Agustín\nCándido Ledesma, otro de los seis\njueces de la Cámara Federal. Esta rotación, que será semanal, fue prevista\ncuando se organizó el funcionamiento\nde esta parte pública y oral del juicio.",
               "bounding_box": {
                  "x": 2833.9253731343283,
                  "y": 568.7939698492462,
                  "width": 655.6417910447759,
                  "height": 258.54271356783914
               }
            }
         ],
         "Fotografía": [],
         "Epígrafe": [],
         "Firma": []
      }
   ],
   "Página": [
      {
         "texto": "Página 16",
         "bounding_box": {
            "x": 103.52238805970148,
            "y": 47.39949748743719,
            "width": 176.85074626865668,
            "height": 51.70854271356784
         }
      }
   ]
}