{
   "Diario": {
      "texto": "La Nación",
      "bounding_box": {}
   },
   "Fecha": {
      "texto": "1985-07-03",
      "bounding_box": {}
   },
   "Notas": [
      {
         "Volanta": [
            {
               "texto": "El análisis de la sesión de ayer",
               "bounding_box": {
                  "x": 271.26167209554836,
                  "y": 231.25064599483204,
                  "width": 542.5233441910967,
                  "height": 63.793281653746796
               }
            }
         ],
         "Título": [
            {
               "texto": "El aire enrarecido que una\nmujer creó con lo que dijo",
               "bounding_box": {
                  "x": 273.2562432138979,
                  "y": 310.99224806201556,
                  "width": 1258.5743756786105,
                  "height": 255.17312661498727
               }
            },
            {
               "texto": "Consecuencia",
               "bounding_box": {
                  "x": 716.0510314875135,
                  "y": 1194.1304909560724,
                  "width": 167.54397394136808,
                  "height": 37.877260981912144
               }
            }
         ],
         "Copete": [],
         "Destacado": [],
         "Cuerpo": [
            {
               "texto": "El más extenso testimonio de la sesión de ayer, prestado por Elena Alfaro, ex detenida de El Vesubio,\nabundó en acusaciones concretas, formuló detalles precisos, coincidió con\notros prestados con anterioridad, pero\ndejó lugar a dudas, por lo menos para\nlos espectadores, y en lo que se refiere\na la eterna pregunta inicial: “¿Tiene\nalgún interés en el resultado de este\njuicio?”\n\nPorque a lo largo de su testimonio,\nla deponente demostró no haber sido\n—pese a su negativa— una detenida común -gozaba de ciertos privilegios-,\nalgo que acaso le permitió ver y comprobar más cosas que al resto de sus\ncompañeros de infortunio.\n\nY si bien el doctor Valerga Aráoz no\naceptó que un defensor preguntara\nlisa y llanamente sobre sus posibles\nrelaciones íntimas con los militares a\nlos que acusaba, la carta exhibida por\nel doctor Orgeira, en la que el padre\nde la testigo se disculpa ante el coronel Luque por las declaraciones de\nésta en 1984, puso un punto de duda,\nimposible de aventar.\n\nMas aún, de las mismas declaraciones de la testigo, Luque emerge que",
               "bounding_box": {
                  "x": 267.27252985884917,
                  "y": 580.1201550387597,
                  "width": 428.8327904451682,
                  "height": 741.5968992248062
               }
            },
            {
               "texto": "la “intimidad” con los militares Durán\nSáenz y Luque trascendió el mero horror -también detallado por ella- de\nlas violaciones y vejámenes entre\nrejas y tuvieron su prolongación después de haber recuprado la ex prisionera su libertad.\n\nHay visitas familiares en La Plata y\nen La Pampa; hay un padrinazgo...\nMás aún, la misma testigo narró que\nhabía obtenido su libertad merced a la\nintervención directa del general Suárez Mason, (que no fue precisamente\nun “blando”), pese a “la orden de eliminarla por saber demasiado, impartida por el general Luciano Benjamin\nMenéndez”, según declaró.\nY también, respecto del interés\neventual de la testigo, queda como\notro punto oscuro, el hecho de no recordar el lugar en que se domiciliaba\nen el momento de ser secuestrada, no\nobstante mostrar una memoria pecisa\nrespecto de otros detalles.",
               "bounding_box": {
                  "x": 712.0618892508134,
                  "y": 580.1201550387594,
                  "width": 430.82736156351734,
                  "height": 610.0232558139531
               }
            },
            {
               "texto": "cido (principio recogido de elementales normas procesales y aceptado pacíficamente\npor la doctrina), la Cámara no aceptó el testimonio de Néstor Cendón, dejado de lado por la acusación, no obstante las airadas protestas de varios defensores.\n\nEl caso es que Cendón denunció penalmente ayer haber sido presionado\npor la Conadep y por un magistrado\ndeclarar en un determinado sentido.\n\nEn realidad, las idas y venidas testimoniales de Cendón, actualmente procesado, más que justifican un desistimiento: poca seriedad y nula credibilidad. Tanto ha dicho Cendón, en uno y\notro sentido, que ya nadie puede tomar\ndemasiado en cuenta, a los fines de\neste juicio, y, de todas maneras, lo\nsuyo ya está atrapado por la red de la\njusticia en otro ámbito.\n\nPor eso, no obstante las airadas\nreacciones, lo único válido respecto de\neste testigo fue lo formulado por el\ndoctor Valerga Aráoz: “El Tribunal, al\nmomento de dictar su fallo, sabrá valorar el testimonio de Cendón ante la\nConadep”.",
               "bounding_box": {
                  "x": 1160.840390879479,
                  "y": 576.1330749354006,
                  "width": 432.82193268186757,
                  "height": 737.609819121447
               }
            },
            {
               "texto": "Consecuente con el principio de que\ntoda prueba puede ser desistida por el\noferente mientras no se haya produ",
               "bounding_box": {
                  "x": 716.0510314875135,
                  "y": 1235.994832041344,
                  "width": 426.83821932681866,
                  "height": 81.73514211886305
               }
            }
         ],
         "Fotografía": [],
         "Epígrafe": [],
         "Firma": []
      }
   ],
   "Página": []
}