{
   "Diario": {
      "texto": "La Nación",
      "bounding_box": {}
   },
   "Fecha": {
      "texto": "22 JUL 1985",
      "bounding_box": {
         "x": 296.0093457943924,
         "y": 169.08527131782947,
         "width": 282.65554072096126,
         "height": 62.29457364341085
      }
   },
   "Notas": [
      {
         "Volanta": [
            {
               "texto": "El juicio a los ex comandantes en jefe",
               "bounding_box": {
                  "x": 224.7890520694259,
                  "y": 251.4031007751938,
                  "width": 799.0026702269693,
                  "height": 55.62015503875967
               }
            }
         ],
         "Título": [
            {
               "texto": "Con interrogantes comienzan\nLas audiencias vespertinas",
               "bounding_box": {
                  "x": 215.88651535380507,
                  "y": 322.59689922480624,
                  "width": 1301.995994659546,
                  "height": 249.1782945736434
               }
            },
            {
               "texto": "Clima caldeado",
               "bounding_box": {
                  "x": 222.56341789052067,
                  "y": 1248.116279069767,
                  "width": 186.9532710280374,
                  "height": 35.59689922480621
               }
            }
         ],
         "Copete": [],
         "Destacado": [],
         "Cuerpo": [
            {
               "texto": "Hoy, retornando a su horario habitual de la tarde, al haber finalizado la\nferia judicial, el juicio a los ex comandantes en jefe iniciará, con la dirección del doctor Guillermo Ledesma, su\nsesión número 60.\n\nDurante esta semana se continuará\ncon el análisis de lo ocurrido en la\nESMA, un tema que comenzó la semana pasada y que\nprodujo sesiones de despiadada intensidad.\n\nDesde el principio de la audiencia,\nse supo que la pieza de ataque más poderosa de la Fiscalía estaba, precisamente, en los hechos que se suponen\nocurridos en la Escuela de Mecánica\nde la Armada (ESMA), no sólo por los\nextremos a que allí se habría llegado\nsino por un tema vital para los acusadores: la conexión interfuerzas.\n\nSe entiende, a través de los testimonios ya producidos y sobre la base de\nnumerosa prueba instrumental, que la\nESMA funcionó como centro de atracción respecto del Ejército y de la\nFuerza Aérea en varios de los mecanismos represivos de la subversión.",
               "bounding_box": {
                  "x": 227.014686248331,
                  "y": 576.2248062015506,
                  "width": 418.41922563417904,
                  "height": 667.4418604651158
               }
            },
            {
               "texto": "ha provocado una natural elevación en\nla temperatura del trámite procesal,\nhasta el punto de hacer afirmar al\ndoctor Orgeira (defensor de Viola), el\nviernes pasado, que ciertas reacciones\nde hilaridad provocadas por algunas\nde sus intervenciones son orquestadas\npara irritarlo.\n\nNo es ésta la única preocupación del\ndefensor del general Viola. También\nha preguntado repetidamente cómo\nconsiguió ciertos testigos la fiscalía,\nsiendo que no figuran en el informe de\nla Conadep.\n\nLa respuesta de la acusación fue\ndada a LA NACION por uno de sus integrantes: “Al principio, trabajamos a\ndestajo sumando la mayoría de casos\nposibles, por miedo a no cubrir la\ncuota acusatoria. Actuamos, afirmó el\nfuncionario, como un equipo de verdadero trabajo, creando una especie de\npolicía judicial: un testigo mencionaba\na una persona y salíamos en su búsqueda”.\n\nEsto también podría explicar el porqué de la decisión de desistir del testimonio de más de mil testigos: se consiguió prueba de más, se la separó por\nzonas geográficas y luego se las intercaló.\n\nPor ejemplo, se presentó un bloque\nde casos ocurridos en Buenos Aires y\nse dejó el otro para intercalarlo más",
               "bounding_box": {
                  "x": 674.3671562082777,
                  "y": 580.6744186046511,
                  "width": 425.09612817089453,
                  "height": 863.2248062015505
               }
            },
            {
               "texto": "adelante, como quien guarda piezas de\nrepuesto por si fallaran las originales.\n\nY, según el pensamiento de la Fiscalía, como fueron muy pocos los casos\nque no se pudieron ventilar, las piezas\nde reserva resultaron sobreabundantes.\n\nDe todas maneras, los avances de\nciertos sectores políticos que confundieron el fin de la audiencia con la terminación del juicio; las amenazas al\nfiscal Strassera, que éste hiciera públicas y las dirigidas a algunos defensores, que las guardaron para sí, todo\nsumado al natural desgaste de los partícipes del juicio conjugan en que la finalización de la audiencia será también una válvula de escape para muchas tensiones.\n\nEn otro orden, si los ex comandantes en jefe, llamados a ampliar sus\nindagatorias, aceptaran la responsabilidad por los hechos concretos de que\nse los acusa, los oficiales superiores y\njefes militares de grado inferior al de\nellos no se verían obligados a comparecer a prestar testimonio que podrían\nresultar incriminantes en otra instancia y en otro fuero.\n\nDe ser así, algo que se pone muy en\nduda, podría decirse que se ha comenzado a vislumbrar la sombra del famoso “punto final”, concepto hasta\nahora casi inasible de puro sutil.",
               "bounding_box": {
                  "x": 1119.493991989319,
                  "y": 585.1240310077521,
                  "width": 427.32176234979966,
                  "height": 856.550387596899
               }
            },
            {
               "texto": "La proximidad del fin del período de\naudiencia, el tema de la ESMA y la estrategia de Strassera de solicitar que\nse amplie la indagatoria a los procesados, posponiendo los testimonios de\naltos oficiales citados para declarar,",
               "bounding_box": {
                  "x": 220.3377837116155,
                  "y": 1288.1627906976744,
                  "width": 427.32176234979966,
                  "height": 160.1860465116279
               }
            }
         ],
         "Fotografía": [],
         "Epígrafe": [],
         "Firma": []
      }
   ],
   "Página": []
}