{
   "Diario": {
      "texto": "La razón",
      "bounding_box": {}
   },
   "Fecha": {
      "texto": "1985-01-03",
      "bounding_box": {}
   },
   "Notas": [
      {
         "Volanta": [],
         "Título": [
            {
               "texto": "Declarará otro médico\npor un secuestro",
               "bounding_box": {
                  "x": 88.68881118881119,
                  "y": 80.68604651162792,
                  "width": 692.5699300699301,
                  "height": 144.43798449612405
               }
            }
         ],
         "Copete": [],
         "Destacado": [],
         "Cuerpo": [
            {
               "texto": "El abogado del Cels, Marcelo Parrilli, anunció ayer que pedirá al\njuez federal de Lomas de Zamora, Julio Piaggio, la citación de un\nmédico de apellido Pérez Casal, para que amplie su declaración\ntestimonial en la causa por la que se investiga la desaparición de\nSilvia Mabel Valenzi, una joven embarazada, secuestrada en 1976,\npor fuerzas de seguridad. El facultativo, quien ya declaró una vez en\nese juzgado por la misma causa, era jefe del departamento de Neonatología del hospital de Quilmes, el día que, según el relato de varios\ntestigos, Silvia Mabel fue llevada a ese establecimiento en avanzado\nestado de gravidez, por personal uniformado de la policía bonaerense y por el médico de esa repartición Jorge Antonio Bergez.\n\nLa semana pasada, Bergez fue sometido a un careo con su colega\nJusto Horacio Blanco, quien según su propio testimonio, habría\natendido la noche del 7 de abril de 1977, el parto de Silvia Mabel.\nParrilli dijo que “Blanco reconoció a Bergez, quien se mostró muy\nnervioso a lo largo de todo el careo y que por supuesto, negó todo”. El\npedido de citación de Pérez Casal se debe a que también habría\npresenciado el operativo y según Parrilli, como paso posterior se\ntramitará un reconocimiento de Bergez, en rueda de presos, por parte\ndel mismo facultativo.",
               "bounding_box": {
                  "x": 64.77272727272728,
                  "y": 227.1162790697675,
                  "width": 745.3846153846154,
                  "height": 481.12790697674416
               }
            }
         ],
         "Fotografía": [],
         "Epígrafe": [],
         "Firma": []
      }
   ],
   "Página": []
}