{
   "Diario": {
      "texto": "La razón",
      "bounding_box": {}
   },
   "Fecha": {
      "texto": "1985-08-15",
      "bounding_box": {}
   },
   "Notas": [
      {
         "Volanta": [
            {
               "texto": "El fiscal Strassera al culminar la fase testimonial",
               "bounding_box": {
                  "x": 143.59057437407952,
                  "y": 136.07881136950903,
                  "width": 1205.6656848306334,
                  "height": 56.90568475452196
               }
            }
         ],
         "Título": [
            {
               "texto": "Pruebas cabales de todos los\nhechos que se querían démostrar",
               "bounding_box": {
                  "x": 146.0662739322533,
                  "y": 230.0968992248062,
                  "width": 1391.3431516936666,
                  "height": 230.0968992248062
               }
            }
         ],
         "Copete": [],
         "Destacado": [],
         "Cuerpo": [
            {
               "texto": "JULIO César Strassera —52, abogado,\nnervioso, fiscal de la Cámara Federal,\nconsumidor de 60 cigarrillos diarios— se\nsiente satisfecho por el trabajo de la fiscalía en la etapa de pruebas del juicio a\nlas juntas, etapa que concluyó anoche en\nel Palacio de Tribunales.\n\n—Creo que logré reunir la prueba cabal\npara todos y cada uno de los hechos que\npretendí probar —dijo ayer a La Razón\nmientras fumaba con avidez en un oscuro\npasillo junto a la sala de audiencias.\n\nCuando comenzó el juicio Strassera\npuntualizó en un escrito que, globalmente, intentaría probar la comisión de\ndelitos como homicidio, privación ilegítima de la Libertad, falsedad documental o\ntormentos por parte de los ex comandantes del Proceso.\n\n—¿Los testimónios fueron suficiente?—preguntó La Razón.\n\n—No sólo la prueba testimonial, También la documental es abrumadora.\n\n—¿Y ahora?\n\n—Ahora tengo que juntar todo el material acumulado para ver qué hay probado\nen cada caso específico, puesto que de\nmodo global el trabajo ya está hecho. A\nver, espere un momento.\n\nNi siquicra el último día de la audiencia pública el fiscal ha perdido su costumbre de atender las consultas del público que en el cuarto intermedio intenta\nacercarse a Strassera. Una persona\nquiere saber por qué a un testigo se lo\nrelevó del juramento de decir verdad.\nStrassera explica que como está imputado en otra causa, no corresponde obligarlo y ponerlo en peligro de incriminarse\na sí mismo. Otra persona quiere saber si\nhabrá cadena perpetua. “Las penas que\nvoy a pedir las tengo acá, pero aún no las\nhe decidido”, dice el fiscal mientras se\nseñala la frente con el índice derecho.\n\nUna tercera persona quiere averiguar,\ntambién, por el relevo de decir verdad,\nStrassera vuelve a responder lo mismo\nque antes. Una cuarta persona interroga",
               "bounding_box": {
                  "x": 138.63917525773192,
                  "y": 477.5129198966408,
                  "width": 448.1016200294551,
                  "height": 1298.9341085271317
               }
            },
            {
               "texto": "—¿Siente el placer de acusar?\n\n—¡No, eh, de acusar no! De cumplir con\nmi deber. Con mi trabajo.\n\n—Pero su deber y su trabajo son acusar.",
               "bounding_box": {
                  "x": 604.0706921944036,
                  "y": 1632.9457364341085,
                  "width": 462.95581737849784,
                  "height": 141.0271317829458
               }
            },
            {
               "texto": "sobre el cansancio del fiscal a un fiscal\nque duerme cuatro horas diarias. El fiscal\nsonríe. Tiene el gesto de un hombre conforme.",
               "bounding_box": {
                  "x": 618.9248895434463,
                  "y": 556.6860465116279,
                  "width": 453.05301914580264,
                  "height": 106.38888888888889
               }
            },
            {
               "texto": "—Mire, tengo la íntima convicción de\nque actué bien. Y la conciencia tranquila.\n\nEn su vida profesional Strassera calcula\na ojo de buen cubero que ha participado\nen unas 500 acusaciones, pero obviamente jamás trabajó en un caso como el\njuicio a los nueve ex comandantes. Aunque trata de relativizarlo como “una causa\ncriminal más”, admite enseguida que\n“tanta monstruosidad necesita un castigo”. Promete que en la acusación tratará\nde ser “lo más aséptico posible” pero\nacepta, cuando se le pregunta por la carga\nemotiva, que esa carga se canalizará en la\nacusación.\n\nStrassera atendió a La Razón en el último cuarto intermedio de las audiencias\npúblicas de prueba. Se disculpó ni bien\nun policía de custodia de la Cámara\nanunció que la sesión se reanudabá, caminó hacia la sala con un cigarrillo.en la\nmano y entró sonriente, mientras hacía\ncomentarios con el adjunto Luis Moreno\nOcampo.\n\nSentado en el sitio reservado a la físcalía, a la izquierda del tribunal, la sonrisa\nse le fue borrando a medida que escuchó\nel fuerte testimonio de la señora\nde Chester, esposa de un desaparecido del\nHospital Posadas.\n\nLa señora redondeó su testimonio\nusando datos coneretos: quedó claro\ncómo se habían llevado a su marido, qué\nhabía sucedido con ella y su hija, las fechas de la desaparición y sus gestiones,\nlos hábeas corpus presentados, identidad\nde los secuestradores.\n\nCuando el presidente de la sesión, Jorge\nValerga Aráoz, preguntó si “la fiscalía\nquiere hacer alguna pregunta”, Strassera\nformuló una sola:\n\n—Si puede detallar la testigo, aunque\nsea someramente, los efectos que le robaron—.\n\nFue la última pregunta del fiscal en el\njuicio a los ex comandantes. Ahora resta,\npara él y su equipo, una sola tarea: acusar.",
               "bounding_box": {
                  "x": 1096.7349042709866,
                  "y": 484.9354005167957,
                  "width": 460.480117820324,
                  "height": 1286.5633074935402
               }
            }
         ],
         "Fotografía": [
            {
               "texto": "",
               "bounding_box": {
                  "x": 623.8762886597939,
                  "y": 670.4974160206716,
                  "width": 440.67452135493386,
                  "height": 912.9651162790698
               }
            }
         ],
         "Epígrafe": [
            {
               "texto": "Fiscal Julio César Strassera",
               "bounding_box": {
                  "x": 683.2930780559647,
                  "y": 1590.8850129198966,
                  "width": 324.31664212076595,
                  "height": 29.689922480620158
               }
            }
         ],
         "Firma": [
            {
               "texto": "Por Martín Granovsky",
               "bounding_box": {
                  "x": 700.6229749631812,
                  "y": 484.9354005167957,
                  "width": 297.0839469808542,
                  "height": 39.58656330749355
               }
            }
         ]
      }
   ],
   "Página": [
      {
         "texto": "Página 25",
         "bounding_box": {
            "x": 1426.0029455081,
            "y": 34.638242894056845,
            "width": 136.16347569955815,
            "height": 27.215762273901806
         }
      }
   ]
}