{
   "Diario": {
      "texto": "La razón",
      "bounding_box": {}
   },
   "Fecha": {
      "texto": "1985-07-19",
      "bounding_box": {}
   },
   "Notas": [
      {
         "Volanta": [],
         "Título": [
            {
               "texto": "Han sido probados\ntodos los delitos",
               "bounding_box": {
                  "x": 173.33910533910534,
                  "y": 167.4651162790698,
                  "width": 663.9769119769119,
                  "height": 167.4651162790698
               }
            }
         ],
         "Copete": [],
         "Destacado": [],
         "Cuerpo": [
            {
               "texto": "EL fiscal federal Julio César Strassera salió al cruce de versiones periodísticas que hablaban de que se acortaría el\njuicio a las juntas militares y manifestó “no hay tal cosa; pues\nesto está dentro de lo previsto” y recordó que “tiempo atrás\nhable de 4 ó 5 meses de juicio, así que no se cual es la novedad”,\nrecalcó.\n\nEn diálogo con el programa Nuevos Aires de Radio Belgrano,\nStrassera reiteró que tenía pruebas sobreabundantes lo que le\nlleva a prescindir de aquellos testimonios que no le fueran\nnecesarios.\n\nCon respecto a sus delearaciones del miércoles indicó que no\nhubo sorpresas ya que “nosotros conocíamos lo que se dijo\nantes ante la CONADEP“ y en cuanto a los testigos aclaró que\n“tomará a los que le interesan para cumplir con la prueba\ntestimonial y luego se pasará a la etapa de alegato.\n\nDesestimó volver a referirse a las amenazas y expresó que\n\"hay más de 20 para que me reemplacen. Yo creo que apuntan\na intimidar a los testigos”, acotó.\n\nRecordó que los delitos que se imputan a los jefes militares\ndel Proceso son: “privación ilegal de la libertad, aplicación de\ntormentos, robos, homicidios y falsedades documentales. El\nmáximo de la condena prevista es de 25 años de prisión”. Negó\nque exista la pena de muerte.",
               "bounding_box": {
                  "x": 170.40115440115437,
                  "y": 358.43410852713185,
                  "width": 675.7287157287158,
                  "height": 593.4728682170543
               }
            }
         ],
         "Fotografía": [],
         "Epígrafe": [],
         "Firma": []
      }
   ],
   "Página": []
}