{
   "Diario": {
      "texto": "GENTE",
      "bounding_box": {
         "x": 54.72631578947365,
         "y": 79.10852713178294,
         "width": 577.6666666666665,
         "height": 282.9651162790697
      }
   },
   "Fecha": {
      "texto": "2 DE MARZO DE 1989",
      "bounding_box": {
         "x": 21.28245614035087,
         "y": 398.5852713178296,
         "width": 300.9947368421052,
         "height": 54.767441860465105
      }
   },
   "Notas": [
      {
         "Volanta": [
            {
               "texto": "SABATINI",
               "bounding_box": {
                  "x": 778.3298245614034,
                  "y": 143.00387596899225,
                  "width": 243.22807017543857,
                  "height": 91.27906976744185
               }
            },
            {
               "texto": "ELECCIONES",
               "bounding_box": {
                  "x": 15.20175438596491,
                  "y": 538.546511627907,
                  "width": 328.3578947368422,
                  "height": 100.40697674418601
               }
            },
            {
               "texto": "SUSANA-DARIN",
               "bounding_box": {
                  "x": 1307.3508771929826,
                  "y": 2035.5232558139535,
                  "width": 419.56842105263155,
                  "height": 100.40697674418601
               }
            }
         ],
         "Título": [
            {
               "texto": "ROD STEWART",
               "bounding_box": {
                  "x": 1307.3508771929826,
                  "y": 133.87596899224806,
                  "width": 389.1649122807017,
                  "height": 100.40697674418601
               }
            },
            {
               "texto": "A 74 días, la tercera\nencuesta del año de GENTE.\nQuién gana.",
               "bounding_box": {
                  "x": 18.242105263157907,
                  "y": 635.9108527131796,
                  "width": 404.3666666666668,
                  "height": 167.34496124031045
               }
            },
            {
               "texto": "LA\nGUERRILLA\nBRASILEÑA",
               "bounding_box": {
                  "x": 27.363157894736837,
                  "y": 1408.7403100775193,
                  "width": 687.1192982456141,
                  "height": 562.8875968992248
               }
            },
            {
               "texto": "Cara a cara con el extorsionador.\nReportaje exclusivo en la cárcel.",
               "bounding_box": {
                  "x": 775.2894736842105,
                  "y": 246.45348837209306,
                  "width": 453.01228070175426,
                  "height": 103.44961240310077
               }
            },
            {
               "texto": "SUSANA-DARIN",
               "bounding_box": {
                  "x": 1182.6964912280705,
                  "y": 2148.1007751937987,
                  "width": 547.2631578947368,
                  "height": 115.62015503875969
               }
            }
         ],
         "Copete": [
            {
               "texto": "La historia de Aldira Pereira Nunes.\n\nEstuvo en Nicaragua,\nse casó con un terrorista argentino y murió\nen el intento de copamiento",
               "bounding_box": {
                  "x": 30.40350877192981,
                  "y": 1995.968992248062,
                  "width": 802.6526315789473,
                  "height": 282.9651162790698
               }
            },
            {
               "texto": "Despues de la separación, juntos\npor primera vez. Todo lo que se dijeron.",
               "bounding_box": {
                  "x": 1313.4315789473687,
                  "y": 249.49612403100775,
                  "width": 267.55087719298245,
                  "height": 106.49224806201553
               }
            }
         ],
         "Destacado": [],
         "Cuerpo": [],
         "Fotografía": [],
         "Epígrafe": [],
         "Firma": []
      }
   ],
   "Página": []
}